{
    "status": "ok",
    "total_hits": 5288,
    "page": 1,
    "total_pages": 529,
    "page_size": 10,
    "articles": [
        {
            "title": "AEW Scoops up WWE Alums Amidst WrestleMania Week Turmoil",
            "author": "Brian  Jones",
            "published_date": "2023-04-12 19:16:00",
            "published_date_precision": "full",
            "link": "https://popculture.com/sports/news/aew-scoops-up-wwe-alums-nigel-mcguinness-adam-hopkins-wrestlemania-week-turmoil/",
            "clean_url": "popculture.com",
            "excerpt": "All Elite Wrestling (AEW) just picked up two former members of WWE. AEW President Tony Khan [...]",
            "summary": "All Elite Wrestling (AEW) just picked up two former members of \nWWE\n. AEW President Tony Khan \nrecently announced\n that the company has signed Nigel McGuinness to a contract. And\n according to Mike Johnson of \nPW Insider\n,\n AEW hired former WWE Vice President of Communications Adam Hopkins. This news comes as \nWWE received criticism\n for Vince McMahon taking over creative following the merger with UFC. \nMcGuinness (real name Steve Haworth) is known for his time in \nRing of Honor\n (ROH), winning the ROH World Championship and the ROH Pure Championship.",
            "rights": "popculture.com",
            "rank": 9574,
            "topic": "entertainment",
            "country": "US",
            "language": "en",
            "authors": "Brian  Jones",
            "media": "https://sportshub.cbsistatic.com/i/2023/04/12/5a0a873b-761d-406d-8a06-0a89984f59ab/aew-wwe.jpg?width=1200",
            "is_opinion": false,
            "twitter_account": "PopCulture",
            "_score": 50.970196,
            "_id": "c73135bef701ea604cee627ded679006"
        },
        {
            "title": "Chris Jericho And Adam Cole Set To Come 'Face-To-Face' On 4/19 AEW Dynamite",
            "author": "Ross W Berman Iv",
            "published_date": "2023-04-16 18:47:58",
            "published_date_precision": "full",
            "link": "https://www.wrestlinginc.com/1259124/chris-jericho-and-adam-cole-set-to-come-face-to-face-on-419-aew-dynamite/",
            "clean_url": "wrestlinginc.com",
            "excerpt": "Former ROH World Champions will address each other as Adam Cole is set to come face to face with Chris Jericho on this week's \"AEW Dynamite.\"",
            "summary": "Adam Cole had some inspiring words for his AEW colleague Keith Lee last week, much to the chagrin of Lee's opponent Chris Jericho.\n\n\nAdam Cole shared\n an announcement that Jericho and Cole will come face to face on this Wednesday's edition of \"AEW Dynamite.\" The show will take place in Pittsburgh, PA. AEW \nshared a video\n from \nlast week's \"Dynamite,\"\n showing Jericho and his Jericho Appreciation Society comrade Daniel Garcia trash-talking Adam Cole, after Cole did his best to uplift Keith Lee, following Lee's loss to Jericho in the main event.",
            "rights": "wrestlinginc.com",
            "rank": 23146,
            "topic": "news",
            "country": "US",
            "language": "en",
            "authors": "Ross W Berman IV",
            "media": "https://www.wrestlinginc.com/img/gallery/chris-jericho-and-adam-cole-set-to-come-face-to-face-on-419-aew-dynamite/l-intro-1681670781.jpg",
            "is_opinion": false,
            "twitter_account": "@wrestlinginc",
            "_score": 49.271736,
            "_id": "bff705debc75af7930511f719817a1dd"
        },
        {
            "title": "There's one man who should retire Rey Mysterio in WWE and it's not Dominik Mysterio",
            "author": "Uday Maggon",
            "published_date": "2023-04-12 20:12:21",
            "published_date_precision": "full",
            "link": "https://www.sportskeeda.com/aew/there-s-one-man-retire-rey-mysterio-wwe-dominik-mysterio",
            "clean_url": "sportskeeda.com",
            "excerpt": "Rey Mysterio and Dominik Mysterio have been involved in one of WWE's hottest angles in recent memory.",
            "summary": "Rey Mysterio and Dominik Mysterio have been involved in one of WWE's hottest angles in recent memory. The father-son rivalry is still ongoing, but instead of his son, the Master of 619 should be retired by current AEW star Bandido.\n\nMichael Cole's reaction to Rey Mysterio finally whipping Dominik at #Wrestlemania this past weekend was everything\n\n11497\n1201\n\nBandido signed with AEW last year. He debuted for Tony Khan's company in September 2022 on an episode of Dynamite when he faced Chris Jericho in an ROH World Championship match.",
            "rights": "sportskeeda.com",
            "rank": 4550,
            "topic": "news",
            "country": "IN",
            "language": "en",
            "authors": "Uday Maggon",
            "media": "https://staticc.sportskeeda.com/editor/2023/04/fc074-16813284678236-1920.jpg",
            "is_opinion": false,
            "twitter_account": "@sportskeeda",
            "_score": 47.439552,
            "_id": "a2f2fe2ea21da1f9a7fa8000e2f42ac9"
        },
        {
            "title": "Every Current Champion In AEW: Where Were They 10 Years Ago",
            "author": "Kebin Antony",
            "published_date": "2023-04-15 11:00:17",
            "published_date_precision": "full",
            "link": "https://www.thesportster.com/every-current-aew-champion-where-were-they-10-years-ago/",
            "clean_url": "thesportster.com",
            "excerpt": "Find out where all the current champions in AEW were 10 years ago.",
            "summary": "All Elite Wrestling\n has one of the most star-studded rosters in the current pro wrestling industry. With wrestlers from all over the globe, Tony Khan's company has grown into the next biggest wrestling promotion in the world.\n \nTony Khan also acquired Ring of Honor in March 2022 and is running the promotion as a separate entity, but has the wrestlers from the ROH roster appear on AEW television as well.\n \nThere are fourteen championships across both sister promotions, with some of the best wrestlers representing them as champions.",
            "rights": "thesportster.com",
            "rank": 23173,
            "topic": "news",
            "country": "US",
            "language": "en",
            "authors": "Kebin Antony",
            "media": "https://static0.thesportsterimages.com/wordpress/wp-content/uploads/2023/03/pictures-of-current-aew-champions-ten-years-ago.jpg",
            "is_opinion": false,
            "twitter_account": "@WrestlingSheet",
            "_score": 46.333138,
            "_id": "4e5a682f8a62871bc511aeaeefa69505"
        },
        {
            "title": "Former WWE star picks his dream bout for major AEW event",
            "author": "Tim Malinzi",
            "published_date": "2023-04-15 18:51:19",
            "published_date_precision": "full",
            "link": "https://www.sportskeeda.com/aew/news-former-wwe-star-picks-dream-bout-major-aew-event",
            "clean_url": "sportskeeda.com",
            "excerpt": "Ahead of the second iteration of AEW and NJPW's Forbidden Door pay-per-view, a former WWE Superstar has named his ideal opponent for the show.",
            "summary": "Ahead of the second iteration of AEW and NJPW's Forbidden Door pay-per-view, a former WWE Superstar has named his ideal opponent for the show.\n\nThe star in question is former WWE Cruiserweight Champion Lio Rush. The Man of the Hour worked for AEW after being released from the world's largest wrestling promotion in April 2020. He is currently signed to New Japan, where he has quickly become a popular star in the company.\n\n👑𝔸𝕕𝕒𝕞 𝔾𝕠𝕝𝕕𝕓𝕖𝕣𝕘👑\n@AdamGoldberg28\n\n\n\n450\n61\n\nThe AEW/NJPW crossover event is set to take place in June this year.",
            "rights": "sportskeeda.com",
            "rank": 4550,
            "topic": "news",
            "country": "IN",
            "language": "en",
            "authors": "Tim Malinzi",
            "media": "https://staticc.sportskeeda.com/editor/2023/04/83433-16815837166851-1920.jpg",
            "is_opinion": false,
            "twitter_account": "@timmalinzi",
            "_score": 46.237755,
            "_id": "029b308ce95b37c3c0a1344d93da138d"
        },
        {
            "title": "Kevin Owens and Sami Zayn could lose titles if deadly duo reunites in WWE after 6 years",
            "author": "Uday Maggon",
            "published_date": "2023-04-13 19:54:36",
            "published_date_precision": "full",
            "link": "https://www.sportskeeda.com/aew/kevin-owens-sami-zayn-lose-titles-deadly-duo-reunites-wwe-6-years",
            "clean_url": "sportskeeda.com",
            "excerpt": "Kevin Owens and Sami Zayn provided WWE fans with one of the greatest WrestleMania moments of the modern era at WrestleMania 39.",
            "summary": "Kevin Owens and Sami Zayn provided WWE fans with one of the greatest WrestleMania moments of the modern era at WrestleMania 39. The duo defeated arguably the greatest tag team of their generation, The Usos, and emerged victorious with the tag team titles. However, their reign could be under serious threat if Erick Redbeard returns to the company to reunite with Bray Wyatt.\n\nErick Redbeard was known as Erick Rowan during his time in the global wrestling juggernaut. He was a member of the Wyatt Family alongside Bray Wyatt and Luke Harper.",
            "rights": "sportskeeda.com",
            "rank": 4550,
            "topic": "news",
            "country": "IN",
            "language": "en",
            "authors": "Uday Maggon",
            "media": "https://staticc.sportskeeda.com/editor/2023/04/fc329-16814127380775-1920.jpg",
            "is_opinion": false,
            "twitter_account": "@sportskeeda",
            "_score": 42.437424,
            "_id": "d93e3736076428005cb31f6dcf703857"
        },
        {
            "title": "There's only one Samoan who should take over The Bloodline from Roman Reigns",
            "author": "Shubhajit Deb",
            "published_date": "2023-04-15 15:20:02",
            "published_date_precision": "full",
            "link": "https://www.sportskeeda.com/aew/there-s-one-samoan-take-the-bloodline-roman-reigns",
            "clean_url": "sportskeeda.com",
            "excerpt": "The Bloodline leader, Roman Reigns, is seemingly running out of opponents to conquer in WWE.",
            "summary": "The Bloodline leader, Roman Reigns, is seemingly running out of opponents to conquer in WWE. Under the circumstances, there is a particular Samoan superstar that could credibly remove The Tribal Chief from the faction itself.\n\nThe star in question is none other than Samoa Joe. While the 44-year-old star is signed to AEW, he has only been seen in ROH matches over the last few weeks. He was released from WWE in 2021, although he did appear in NXT afterwards.\n\nSamoa Joe has already stated that he was not interested in teaming up with Roman Reigns and The Usos on account of being grouped together simply because they were Samoan.",
            "rights": "sportskeeda.com",
            "rank": 4550,
            "topic": "news",
            "country": "IN",
            "language": "en",
            "authors": "Shubhajit Deb",
            "media": "https://staticc.sportskeeda.com/editor/2023/04/74bb1-16815075843339-1920.jpg",
            "is_opinion": false,
            "twitter_account": "@sportskeeda",
            "_score": 41.374912,
            "_id": "a4eadfc32168dfc4a9817edd2bc3c45b"
        },
        {
            "title": "WWE had \"some interest\" in signing 39-year-old AEW star",
            "author": "Ojas Kulkarni",
            "published_date": "2023-04-12 01:35:16",
            "published_date_precision": "full",
            "link": "https://www.sportskeeda.com/aew/rumor-wwe-some-interest-signing-39-year-old-aew-star-reports",
            "clean_url": "sportskeeda.com",
            "excerpt": "It has been reported that an AEW star has put rumors to rest by signing a new deal with the promotion.",
            "summary": "It has been reported that an AEW star has put rumors to rest by signing a new deal with the promotion. There were previous speculations that Brian Cage was unhappy with the company and was considering a move to WWE.\n\nHowever, the latest report suggests that Cage has decided to stay with AEW. The Machine made his debut for All Elite Wrestling in 2020, but his talents were not utilized to their fullest potential during his tenure.\n\nAccording to a report from Fightful Select, several top talents in AEW advocated for Brian Cage to re-sign, and the promotion made a concentrated effort to finalize the deal in the last couple of weeks.",
            "rights": "sportskeeda.com",
            "rank": 4550,
            "topic": "news",
            "country": "IN",
            "language": "en",
            "authors": "Ojas Kulkarni",
            "media": "https://staticc.sportskeeda.com/editor/2023/04/f0964-16812608925252-1920.jpg",
            "is_opinion": false,
            "twitter_account": "@@_OjasKulkarni_",
            "_score": 40.15199,
            "_id": "c62b8e7b3d128a894dd7befa862ad4b8"
        },
        {
            "title": "Former WWE star returns to AEW after 7 months, surprisingly gets squashed",
            "author": "Jayakrishna Daspan",
            "published_date": "2023-04-13 01:41:37",
            "published_date_precision": "full",
            "link": "https://www.sportskeeda.com/aew/news-former-wwe-star-returns-aew-7-months-surprisingly-gets-squashed",
            "clean_url": "sportskeeda.com",
            "excerpt": "A former WWE star made his return to AEW tonight only to get squashed. The star in question is Silas Young.",
            "summary": "A former WWE star made his return to AEW tonight only to get squashed. The star in question is Silas Young.\n\nOn tonight's episode of Dynamite, Powerhouse Will Hobbs put his TNT Championship on the line in an open challenge. The wrestler who accepted the challenge was the former WWE star. The 43-year-old star last wrestled in WWE back in 2010.\n\nAll Elite Wrestling\n@AEW\n\nTNT Champion #PowerhouseHobbs @truewilliehobbs is ready to defend his title against Milwaukee's own Silas Young @lastrealmanROH!\n\nWatch #AEWDynamite LIVE on TBS!\n\n207\n56\n\nYoung was last seen inside an AEW ring back in August last year.",
            "rights": "sportskeeda.com",
            "rank": 4550,
            "topic": "news",
            "country": "IN",
            "language": "en",
            "authors": "Jayakrishna Dasappan",
            "media": "https://staticc.sportskeeda.com/editor/2023/04/9c3db-16813490994841-1920.jpg",
            "is_opinion": false,
            "twitter_account": "@sportskeeda",
            "_score": 39.686935,
            "_id": "b4d6b1d57da7f0145361f63aefc1d796"
        },
        {
            "title": "\"Vince is destroying what Triple H built\"",
            "author": "Uday Maggon",
            "published_date": "2023-04-15 20:00:19",
            "published_date_precision": "full",
            "link": "https://www.sportskeeda.com/wwe/news-vince-destroying-triple-h-built-fans-react-wwe-seemingly-misses-signing-major-aew-star",
            "clean_url": "sportskeeda.com",
            "excerpt": "Triple H has taken over WWE creative duties from Vince McMahon for nearly a year now, and the product is noticeably different.",
            "summary": "Triple H has taken over WWE creative duties from Vince McMahon for nearly a year now, and the product is noticeably different. Some feel the latter's recent return to the company cost them signing AEW star Brian Cage.\n\nThe Machine was a free agent after his match at Ring of Honor's Supercard of Honor event. The Embassy comprising of Bishop Kaun, Brian Cage, and Toa Liona retained the ROH Six-Man Tag Team Championship by defeating AR Fox, Blake Christian, and Metalik.\n\nIt was reported that WWE was interested in the former FTW World Champion.",
            "rights": "sportskeeda.com",
            "rank": 4550,
            "topic": "news",
            "country": "IN",
            "language": "en",
            "authors": "Uday Maggon",
            "media": "https://staticc.sportskeeda.com/editor/2023/04/5d4de-16815872094150-1920.jpg",
            "is_opinion": false,
            "twitter_account": "@@uday_maggon",
            "_score": 39.283524,
            "_id": "4e5bf4c8b814984d70792a615995162b"
        }
    ],
    "user_input": {
        "q": "aew OR wwe OR roh OR nxt",
        "search_in": [
            "title_summary_en"
        ],
        "lang": [
            "en"
        ],
        "not_lang": null,
        "countries": null,
        "not_countries": null,
        "from": "2023-04-12 00:00:00",
        "to": null,
        "ranked_only": "True",
        "from_rank": null,
        "to_rank": null,
        "sort_by": "relevancy",
        "page": 1,
        "size": 10,
        "sources": null,
        "not_sources": [],
        "topic": null,
        "published_date_precision": null
    }
}